
Grading Rubric for HW04

Two Files were created CrapsIf.java                          10 pts
                                      CrapsSwitch.java
10
Random Code						 10 pts
10
User provided input					 10 pts
7 (didn't handle out of bound numbers)
Determine Slang					 20 pts
20
Print the Slang					 10 pts
10
Comments						 10 pts
10
Compiles						 30 pts 
30
Total: 97
